{
	"name": "Search Entry Fix",
	"uuid": "search-entry-fix@zhaose.cyou",
	
	"url": "https://gitlab.com/weiliang1503/",
	"description": "Remove the clear button in the overview search entry which can cause gnome-shell to crash.",
	
	"shell-version": [
		"43"
	]
}
